{
    "page": 1,
    "total_results": 94,
    "total_pages": 5,
    "results": [
        {
            "vote_count": 44,
            "id": 259910,
            "video": false,
            "vote_average": 6.6,
            "title": "Marvel Studios: Assembling a Universe",
            "popularity": 9.255891,
            "poster_path": "/5LLBKBH4udb0wJveefs1acQ2pW9.jpg",
            "original_language": "en",
            "original_title": "Marvel Studios: Assembling a Universe",
            "genre_ids": [
                10770,
                99
            ],
            "backdrop_path": "/adto5SCBYcr7trKjmhzRCMJmZZW.jpg",
            "adult": false,
            "overview": "A look at the story behind Marvel Studios and the Marvel Cinematic Universe, featuring interviews and behind-the-scenes footage from all of the Marvel films, the Marvel One-Shots and \"Marvel's Agents of S.H.I.E.L.D.\"",
            "release_date": "2014-03-18"
        },
        {
            "vote_count": 113,
            "id": 119569,
            "video": false,
            "vote_average": 6.6,
            "title": "Marvel One-Shot: Item 47",
            "popularity": 8.361215,
            "poster_path": "/i8i7xHztK5fb4ZXQ6BhOEwmnpQj.jpg",
            "original_language": "en",
            "original_title": "Marvel One-Shot: Item 47",
            "genre_ids": [
                878,
                28,
                14
            ],
            "backdrop_path": "/sBZEzXNl7WoZAMu7ejkro5d8yad.jpg",
            "adult": false,
            "overview": "Benny and Claire, a down on their luck couple find a discarded Chitauri gun, referred to as 'Item 47'...",
            "release_date": "2012-09-13"
        },
        {
            "vote_count": 182,
            "id": 211387,
            "video": false,
            "vote_average": 7.5,
            "title": "Marvel One-Shot: Agent Carter",
            "popularity": 9.563013,
            "poster_path": "/eiw4sh6ieAVuJq6E1bSHQkZPfwm.jpg",
            "original_language": "en",
            "original_title": "Marvel One-Shot: Agent Carter",
            "genre_ids": [
                28,
                12,
                878,
                14
            ],
            "backdrop_path": "/jpMVir4cCQJbtmruzpNd12yJj7Y.jpg",
            "adult": false,
            "overview": "The film takes place one year after the events of Captain America: The First Avenger, in which Agent Carter, a member of the Strategic Scientific Reserve, is in search of the mysterious Zodiac.",
            "release_date": "2013-09-08"
        },
        {
            "vote_count": 107,
            "id": 76122,
            "video": false,
            "vote_average": 6.6,
            "title": "Marvel One-Shot: The Consultant",
            "popularity": 8.362013,
            "poster_path": "/wapyjRnRvbPG4x3YjEAUQ7dGc9a.jpg",
            "original_language": "en",
            "original_title": "Marvel One-Shot: The Consultant",
            "genre_ids": [
                12,
                14,
                878,
                28
            ],
            "backdrop_path": "/tHthULHaBaWLS1z2UfYhvHphJSb.jpg",
            "adult": false,
            "overview": "Agent Coulson informs Agent Sitwell that the World Security Council wishes Emil Blonsky to be released from prison to join the Avengers Initiative. As Nick Fury doesn't want to release Blonsky, the two agents decide to send a patsy to sabotage the meeting...",
            "release_date": "2011-09-12"
        },
        {
            "vote_count": 4,
            "id": 299537,
            "video": false,
            "vote_average": 0,
            "title": "Captain Marvel",
            "popularity": 2.791729,
            "poster_path": "/jYcFyeukgo7JGxOOnzrOH35s7Wy.jpg",
            "original_language": "en",
            "original_title": "Captain Marvel",
            "genre_ids": [
                28,
                12,
                878
            ],
            "backdrop_path": "/4MWjeTu5TGLcUzenIlsY0lRVqQU.jpg",
            "adult": false,
            "overview": "Carol Danvers receives superpowers and becomes Captain Marvel.",
            "release_date": "2019-03-06"
        },
        {
            "vote_count": 11784,
            "id": 24428,
            "video": false,
            "vote_average": 7.4,
            "title": "The Avengers",
            "popularity": 284.11932,
            "poster_path": "/cezWGskPY5x7GaglTTRN4Fugfb8.jpg",
            "original_language": "en",
            "original_title": "The Avengers",
            "genre_ids": [
                878,
                28,
                12
            ],
            "backdrop_path": "/hbn46fQaRmlpBuUrEiFqv0GDL6Y.jpg",
            "adult": false,
            "overview": "When an unexpected enemy emerges and threatens global safety and security, Nick Fury, director of the international peacekeeping agency known as S.H.I.E.L.D., finds himself in need of a team to pull the world back from the brink of disaster. Spanning the globe, a daring recruitment effort begins!",
            "release_date": "2012-04-25"
        },
        {
            "vote_count": 4,
            "id": 474227,
            "video": false,
            "vote_average": 6.3,
            "title": "Marvel's Inhumans: IMAX",
            "popularity": 5.685564,
            "poster_path": "/p1f444t4JGF0t8HnRJAcS8xndxF.jpg",
            "original_language": "en",
            "original_title": "Marvel's Inhumans: IMAX",
            "genre_ids": [
                28,
                12,
                10770
            ],
            "backdrop_path": "/zJ4xmyVLYU9Lu3yfYiJNFiLL51D.jpg",
            "adult": false,
            "overview": "After the Royal Family of Inhumans is splintered by a military coup, they barely escape to Hawaii where their surprising interactions with the lush world and humanity around them may prove to not only save them, but Earth itself.",
            "release_date": "2017-09-01"
        },
        {
            "vote_count": 99,
            "id": 253980,
            "video": false,
            "vote_average": 7,
            "title": "Marvel One-Shot: All Hail the King",
            "popularity": 7.787254,
            "poster_path": "/9D2ieo8f9sZdLFY7XjXp73PI7zL.jpg",
            "original_language": "en",
            "original_title": "Marvel One-Shot: All Hail the King",
            "genre_ids": [
                35,
                28,
                18,
                53,
                14
            ],
            "backdrop_path": "/rprTrfEdeu86szhwGZ8KEjJ5KJW.jpg",
            "adult": false,
            "overview": "A documentary filmmaker interviews the now-famous Trevor Slattery from behind bars.",
            "release_date": "2014-02-04"
        },
        {
            "vote_count": 22,
            "id": 299969,
            "video": false,
            "vote_average": 7.7,
            "title": "Marvel: 75 Years, From Pulp to Pop!",
            "popularity": 6.970389,
            "poster_path": "/g716rAncfsYzny2eZoxX8txjdRw.jpg",
            "original_language": "en",
            "original_title": "Marvel: 75 Years, From Pulp to Pop!",
            "genre_ids": [
                99
            ],
            "backdrop_path": "/7kKsMO1meOBTfat6eBjJjNayslA.jpg",
            "adult": false,
            "overview": "In celebration of the publisher's 75th anniversary, the hour-long special will take a detailed look at the company's journey from fledgling comics publisher to multi-media juggernaut. Hosted by Emily VanCamp (S.H.I.E.L.D. Agent Sharon Carter), the documentary-style feature will include interviews with comic book icons, pop culture authorities, and Hollywood stars.  The special also promises an \"extraordinary peek into Marvel's future!\" Might Marvel release the first official footage from next year's Avengers: Age of Ultron or Ant-Man? If they do, you'll know about it here.",
            "release_date": "2014-11-04"
        },
        {
            "vote_count": 31,
            "id": 253617,
            "video": false,
            "vote_average": 6.9,
            "title": "LEGO Marvel Super Heroes: Maximum Overload",
            "popularity": 4.236821,
            "poster_path": "/kZgXXEzgldKseNBezbXa03kXNzG.jpg",
            "original_language": "en",
            "original_title": "LEGO Marvel Super Heroes: Maximum Overload",
            "genre_ids": [
                28,
                16,
                35
            ],
            "backdrop_path": "/k39ctNu53NMJIPl2Qaivd7sQFLL.jpg",
            "adult": false,
            "overview": "Villainous Loki is amassing an army to conquer Earth! His antics are keeping Spider-Man and S.H.I.E.L.D. busy as they tackle a host of bad guys.",
            "release_date": "2013-11-05"
        },
        {
            "vote_count": 3,
            "id": 258670,
            "video": false,
            "vote_average": 3,
            "title": "Marvel Renaissance",
            "popularity": 1.714645,
            "poster_path": "/2kwR7ErqMg2ZJ9I4XREpKMPcfzf.jpg",
            "original_language": "fr",
            "original_title": "Marvel Renaissance",
            "genre_ids": [
                99
            ],
            "backdrop_path": "/zAsk880Ag1yi2fQosOcYrWDbIuW.jpg",
            "adult": false,
            "overview": "",
            "release_date": "2014-02-28"
        },
        {
            "vote_count": 5,
            "id": 368304,
            "video": false,
            "vote_average": 8.1,
            "title": "LEGO Marvel Super Heroes: Avengers Reassembled!",
            "popularity": 2.382885,
            "poster_path": "/pPdB6N9iJjn9GwrNkhMS1FKgx22.jpg",
            "original_language": "en",
            "original_title": "LEGO Marvel Super Heroes: Avengers Reassembled!",
            "genre_ids": [
                16
            ],
            "backdrop_path": "/7QNGBStqOLNtKrczEmbjfuCHKjo.jpg",
            "adult": false,
            "overview": "In \"LEGO Marvel Super Heroes: Avengers Reassembled!,\" the Avengers prepare for a party at Stark Tower and notice that Iron Man is acting strange. After some investigation, they discover that the evil Ultron has taken control of Iron Man and his armor as part of his scheme to take over the world. It's up to Captain America, the Hulk, Thor, Vision, Black Widow, Hawkeye and their friends (Spider-Man, Iron Spider, and special guest star Ant-Man) to rescue Iron Man from Ultron's clutches and defeat the super villain before he causes even more destruction and chaos.",
            "release_date": "2015-11-16"
        },
        {
            "vote_count": 2,
            "id": 252516,
            "video": false,
            "vote_average": 4,
            "title": "The Masked Marvel",
            "popularity": 2.050351,
            "poster_path": "/xjFLhd9pQmUJYHVxnOpQ7bFMhVQ.jpg",
            "original_language": "en",
            "original_title": "The Masked Marvel",
            "genre_ids": [
                28
            ],
            "backdrop_path": "/8ic9mmKYiiVwLkVFnA7Nm9UNPyt.jpg",
            "adult": false,
            "overview": "A team of two-fisted insurance investigators (one of whom disguises himself as The Masked Marvel)  endeavor to discover and thwart the loathsome saboteur Sakima.",
            "release_date": "1943-11-06"
        },
        {
            "vote_count": 3,
            "id": 219230,
            "video": false,
            "vote_average": 7.7,
            "title": "Marvel Knights: Inhumans",
            "popularity": 1.70009,
            "poster_path": "/kBiiRPIXMhJ6y3r5TgF9XmMYLff.jpg",
            "original_language": "en",
            "original_title": "Marvel Knights: Inhumans",
            "genre_ids": [
                16
            ],
            "backdrop_path": "/cllenh2mBhxW5SdHHGMHnt1uUKy.jpg",
            "adult": false,
            "overview": "The Inhumans have always been one of Marvel’s most enduring oddities. A race of genetic freaks, they live secluded in their island kingdom of Attilan, preferring not to mix with the outside world. Even stranger, their genetic mutations are self-endowed; each Inhuman, as a coming-of-age ritual, endures exposure to the Terrigan Mists, a strange substance that imparts unearthly powers, some extraordinary, some monstrous. But now the kingdom of Attilan is under attack from without and within. Can the Royal Family, led by Black Bolt (who cannot speak for his voice carries the destructive power of an atom bomb) repel the foreign invaders who blast at their outer defense, as well as the internal threat of Black Bolt's brother, Maximus the Mad?",
            "release_date": "2013-04-23"
        },
        {
            "vote_count": 0,
            "id": 278755,
            "video": false,
            "vote_average": 0,
            "title": "Maggie Marvel",
            "popularity": 1.117718,
            "poster_path": "/3TLr9xFjw4AERREsK019sH5PIEC.jpg",
            "original_language": "en",
            "original_title": "Maggie Marvel",
            "genre_ids": [
                18,
                35
            ],
            "backdrop_path": "/2R91b04aPrS08muN0VJsUibClky.jpg",
            "adult": false,
            "overview": "About a single Mom who moonlights as a contract killer. Maggie Marvel must balance career and family, murder and math homework. She is pushed into this dangerous world... only to find out she is very good at it.",
            "release_date": "2011-03-05"
        },
        {
            "vote_count": 0,
            "id": 367736,
            "video": false,
            "vote_average": 0,
            "title": "Untitled Marvel Project (1)",
            "popularity": 1.656617,
            "poster_path": null,
            "original_language": "en",
            "original_title": "Untitled Marvel Project (1)",
            "genre_ids": [],
            "backdrop_path": null,
            "adult": false,
            "overview": "An announced Marvel Studios production.",
            "release_date": "2020-05-01"
        },
        {
            "vote_count": 20,
            "id": 284019,
            "video": false,
            "vote_average": 6,
            "title": "Phineas and Ferb: Mission Marvel",
            "popularity": 2.067535,
            "poster_path": "/uEqgmBUqFdWbCgB5Yby6Nv5681p.jpg",
            "original_language": "en",
            "original_title": "Phineas and Ferb: Mission Marvel",
            "genre_ids": [
                28,
                12,
                878
            ],
            "backdrop_path": "/omSsI9gwA2zkILdOtdYT6XyaKxn.jpg",
            "adult": false,
            "overview": "When Dr. Doofenshmirtz's latest invention causes the Marvel heroes to lose their powers, they team up with Phineas and Ferb to save the world from Doofenshmirtz and the Marvel villains.",
            "release_date": "2013-08-16"
        },
        {
            "vote_count": 8,
            "id": 161097,
            "video": false,
            "vote_average": 6.4,
            "title": "Marvel Studios: Building a Cinematic Universe",
            "popularity": 2.800311,
            "poster_path": "/81ZnVzmts1UGAjuGhr7XwKSpJks.jpg",
            "original_language": "en",
            "original_title": "Marvel Studios: Building a Cinematic Universe",
            "genre_ids": [
                99
            ],
            "backdrop_path": "/yeKT2gNFxHGbTT3Htj5PE9IerGJ.jpg",
            "adult": false,
            "overview": "Feature-length documentary about the rise of Marvel Studios and their films leading up to, and including, The Avengers.",
            "release_date": "2012-09-25"
        },
        {
            "vote_count": 70,
            "id": 76535,
            "video": false,
            "vote_average": 7,
            "title": "Marvel One-Shot: A Funny Thing Happened on the Way to Thor's Hammer",
            "popularity": 5.657746,
            "poster_path": "/5uGaqAnt0RQ87uKy8UlRDNrL2jY.jpg",
            "original_language": "en",
            "original_title": "Marvel One-Shot: A Funny Thing Happened on the Way to Thor's Hammer",
            "genre_ids": [
                878,
                14
            ],
            "backdrop_path": "/wdMq7F5Cr1DGg8ioNPZvWxqQer4.jpg",
            "adult": false,
            "overview": "Agent Coulson stops at a convenience store and deals with a coincidental robbery during his visit.",
            "release_date": "2011-10-25"
        },
        {
            "vote_count": 0,
            "id": 455189,
            "video": false,
            "vote_average": 0,
            "title": "Marvel Collection",
            "popularity": 1.002887,
            "poster_path": null,
            "original_language": "en",
            "original_title": "Marvel Collection",
            "genre_ids": [],
            "backdrop_path": null,
            "adult": false,
            "overview": "",
            "release_date": ""
        }
    ]
}
